<?xml version="1.0" encoding="UTF-8" standalone="no"?>
<!DOCTYPE svg PUBLIC "-//W3C//DTD SVG 1.1//EN"
 "http://www.w3.org/Graphics/SVG/1.1/DTD/svg11.dtd">
<!-- Generated by graphviz version 2.26.3 (20100126.1600)
 -->
<!-- Title: G Pages: 1 -->
<svg width="146pt" height="212pt"
 viewBox="0.00 0.00 146.00 212.00" xmlns="http://www.w3.org/2000/svg" xmlns:xlink="http://www.w3.org/1999/xlink">
<g id="graph1" class="graph" transform="scale(1 1) rotate(0) translate(4 208)">
<title>G</title>
<polygon fill="white" stroke="white" points="-4,5 -4,-208 143,-208 143,5 -4,5"/>
<g id="graph2" class="cluster"><title>cluster_Global</title>
<polyline fill="none" stroke="gray" points="20,-8 118,-8 "/>
<path fill="none" stroke="gray" d="M118,-8C124,-8 130,-14 130,-20"/>
<polyline fill="none" stroke="gray" points="130,-20 130,-184 "/>
<path fill="none" stroke="gray" d="M130,-184C130,-190 124,-196 118,-196"/>
<polyline fill="none" stroke="gray" points="118,-196 20,-196 "/>
<path fill="none" stroke="gray" d="M20,-196C14,-196 8,-190 8,-184"/>
<polyline fill="none" stroke="gray" points="8,-184 8,-20 "/>
<path fill="none" stroke="gray" d="M8,-20C8,-14 14,-8 20,-8"/>
<text text-anchor="middle" x="69" y="-182.1" font-family="Times Roman,serif" font-size="11.00" fill="gray">\</text>
</g>
<g id="graph3" class="cluster"><title>cluster_\Illuminate</title>
<polyline fill="none" stroke="gray" points="28,-16 110,-16 "/>
<path fill="none" stroke="gray" d="M110,-16C116,-16 122,-22 122,-28"/>
<polyline fill="none" stroke="gray" points="122,-28 122,-154 "/>
<path fill="none" stroke="gray" d="M122,-154C122,-160 116,-166 110,-166"/>
<polyline fill="none" stroke="gray" points="110,-166 28,-166 "/>
<path fill="none" stroke="gray" d="M28,-166C22,-166 16,-160 16,-154"/>
<polyline fill="none" stroke="gray" points="16,-154 16,-28 "/>
<path fill="none" stroke="gray" d="M16,-28C16,-22 22,-16 28,-16"/>
<text text-anchor="middle" x="69" y="-152.1" font-family="Times Roman,serif" font-size="11.00" fill="gray">Illuminate</text>
</g>
<g id="graph4" class="cluster"><title>cluster_\Illuminate\Database</title>
<polyline fill="none" stroke="gray" points="36,-24 102,-24 "/>
<path fill="none" stroke="gray" d="M102,-24C108,-24 114,-30 114,-36"/>
<polyline fill="none" stroke="gray" points="114,-36 114,-124 "/>
<path fill="none" stroke="gray" d="M114,-124C114,-130 108,-136 102,-136"/>
<polyline fill="none" stroke="gray" points="102,-136 36,-136 "/>
<path fill="none" stroke="gray" d="M36,-136C30,-136 24,-130 24,-124"/>
<polyline fill="none" stroke="gray" points="24,-124 24,-36 "/>
<path fill="none" stroke="gray" d="M24,-36C24,-30 30,-24 36,-24"/>
<text text-anchor="middle" x="69" y="-122.1" font-family="Times Roman,serif" font-size="11.00" fill="gray">Database</text>
</g>
<g id="graph5" class="cluster"><title>cluster_\Illuminate\Database\Eloquent</title>
<polyline fill="none" stroke="gray" points="44,-32 94,-32 "/>
<path fill="none" stroke="gray" d="M94,-32C100,-32 106,-38 106,-44"/>
<polyline fill="none" stroke="gray" points="106,-44 106,-94 "/>
<path fill="none" stroke="gray" d="M106,-94C106,-100 100,-106 94,-106"/>
<polyline fill="none" stroke="gray" points="94,-106 44,-106 "/>
<path fill="none" stroke="gray" d="M44,-106C38,-106 32,-100 32,-94"/>
<polyline fill="none" stroke="gray" points="32,-94 32,-44 "/>
<path fill="none" stroke="gray" d="M32,-44C32,-38 38,-32 44,-32"/>
<text text-anchor="middle" x="69" y="-92.1" font-family="Times Roman,serif" font-size="11.00" fill="gray">Eloquent</text>
</g>
<!-- \\Illuminate\\Database\\Eloquent\\Factory -->
<g id="node5" class="node"><title>\\Illuminate\\Database\\Eloquent\\Factory</title>
<polygon fill="none" stroke="black" points="97,-76 41,-76 41,-40 97,-40 97,-76"/>
<text text-anchor="middle" x="69" y="-55.1" font-family="Times Roman,serif" font-size="11.00">Factory</text>
</g>
</g>
</svg>
